{
  "version": "2.14.0",
  "changes": "getopt replaced by argparse, Add support for Spam Score, realty drop automatic response mails",
  "state": "stable",
  "scope": "bug fixes",
  "download": "https://gitlab.com/surfsara/email2trac/-/archive/2.14.0/email2trac-2.14.0.tar.gz"
}
